<?xml version="1.0"?>
<sdf version="1.5">
  <world name="fluid_world">
    <include>
      <uri>model://ground_plane</uri>
    </include>

    <include>
      <uri>model://sun</uri>
    </include>

    <!--plugin name="FluidWorldPlugin" filename="libFluidWorldPlugin.so"/-->
  </world>
</sdf>

